{
  "question": [
    "id",
    "text",
    "language",
    "question_type"
  ],
  "answer": [
    "area_id",
    "id",
    "placeholder",
    "text",
    "views",
    "language_question",
    "language_guessed",
    "score"
  ]
}